{
    "count": 1154,
    "next": "https://pokeapi.co/api/v2/pokemon?offset=170&limit=40",
    "previous": "https://pokeapi.co/api/v2/pokemon?offset=90&limit=40",
    "results": [
      {
        "name": "lapras",
        "url": "https://pokeapi.co/api/v2/pokemon/131/"
      },
      {
        "name": "ditto",
        "url": "https://pokeapi.co/api/v2/pokemon/132/"
      },
      {
        "name": "eevee",
        "url": "https://pokeapi.co/api/v2/pokemon/133/"
      },
      {
        "name": "vaporeon",
        "url": "https://pokeapi.co/api/v2/pokemon/134/"
      },
      {
        "name": "jolteon",
        "url": "https://pokeapi.co/api/v2/pokemon/135/"
      },
      {
        "name": "flareon",
        "url": "https://pokeapi.co/api/v2/pokemon/136/"
      },
      {
        "name": "porygon",
        "url": "https://pokeapi.co/api/v2/pokemon/137/"
      },
      {
        "name": "omanyte",
        "url": "https://pokeapi.co/api/v2/pokemon/138/"
      },
      {
        "name": "omastar",
        "url": "https://pokeapi.co/api/v2/pokemon/139/"
      },
      {
        "name": "kabuto",
        "url": "https://pokeapi.co/api/v2/pokemon/140/"
      },
      {
        "name": "kabutops",
        "url": "https://pokeapi.co/api/v2/pokemon/141/"
      },
      {
        "name": "aerodactyl",
        "url": "https://pokeapi.co/api/v2/pokemon/142/"
      },
      {
        "name": "snorlax",
        "url": "https://pokeapi.co/api/v2/pokemon/143/"
      },
      {
        "name": "articuno",
        "url": "https://pokeapi.co/api/v2/pokemon/144/"
      },
      {
        "name": "zapdos",
        "url": "https://pokeapi.co/api/v2/pokemon/145/"
      },
      {
        "name": "moltres",
        "url": "https://pokeapi.co/api/v2/pokemon/146/"
      },
      {
        "name": "dratini",
        "url": "https://pokeapi.co/api/v2/pokemon/147/"
      },
      {
        "name": "dragonair",
        "url": "https://pokeapi.co/api/v2/pokemon/148/"
      },
      {
        "name": "dragonite",
        "url": "https://pokeapi.co/api/v2/pokemon/149/"
      },
      {
        "name": "mewtwo",
        "url": "https://pokeapi.co/api/v2/pokemon/150/"
      },
      {
        "name": "mew",
        "url": "https://pokeapi.co/api/v2/pokemon/151/"
      },
      {
        "name": "chikorita",
        "url": "https://pokeapi.co/api/v2/pokemon/152/"
      },
      {
        "name": "bayleef",
        "url": "https://pokeapi.co/api/v2/pokemon/153/"
      },
      {
        "name": "meganium",
        "url": "https://pokeapi.co/api/v2/pokemon/154/"
      },
      {
        "name": "cyndaquil",
        "url": "https://pokeapi.co/api/v2/pokemon/155/"
      },
      {
        "name": "quilava",
        "url": "https://pokeapi.co/api/v2/pokemon/156/"
      },
      {
        "name": "typhlosion",
        "url": "https://pokeapi.co/api/v2/pokemon/157/"
      },
      {
        "name": "totodile",
        "url": "https://pokeapi.co/api/v2/pokemon/158/"
      },
      {
        "name": "croconaw",
        "url": "https://pokeapi.co/api/v2/pokemon/159/"
      },
      {
        "name": "feraligatr",
        "url": "https://pokeapi.co/api/v2/pokemon/160/"
      },
      {
        "name": "sentret",
        "url": "https://pokeapi.co/api/v2/pokemon/161/"
      },
      {
        "name": "furret",
        "url": "https://pokeapi.co/api/v2/pokemon/162/"
      },
      {
        "name": "hoothoot",
        "url": "https://pokeapi.co/api/v2/pokemon/163/"
      },
      {
        "name": "noctowl",
        "url": "https://pokeapi.co/api/v2/pokemon/164/"
      },
      {
        "name": "ledyba",
        "url": "https://pokeapi.co/api/v2/pokemon/165/"
      },
      {
        "name": "ledian",
        "url": "https://pokeapi.co/api/v2/pokemon/166/"
      },
      {
        "name": "spinarak",
        "url": "https://pokeapi.co/api/v2/pokemon/167/"
      },
      {
        "name": "ariados",
        "url": "https://pokeapi.co/api/v2/pokemon/168/"
      },
      {
        "name": "crobat",
        "url": "https://pokeapi.co/api/v2/pokemon/169/"
      },
      {
        "name": "chinchou",
        "url": "https://pokeapi.co/api/v2/pokemon/170/"
      }
    ]
  }